; Move to back of bed
G0 Y212
; Move to center
G0 X105
; Move down
G0 Z0

; Do the jiggle
G0 Y211
G0 Z1
G0 Z0
G0 Y212
G0 Y210
G0 Z1
G0 Z0
G0 Y211
G0 Y209
G0 Z1
G0 Z0
G0 Y210
G0 Y208
G0 Z1
G0 Z0
G0 Y209
G0 Y207
G0 Z1
G0 Z0
G0 Y208
G0 Y206
G0 Z1
G0 Z0
G0 Y207
G0 Y205
G0 Z1
G0 Z0
G0 Y206
G0 Y204
G0 Z1
G0 Z0
G0 Y205
G0 Y203
G0 Z1
G0 Z0
G0 Y204
G0 Y202
G0 Z1
G0 Z0
G0 Y203
G0 Y201
G0 Z1
G0 Z0
G0 Y202
G0 Y200
G0 Z1
G0 Z0
G0 Y201
G0 Y199
G0 Z1
G0 Z0
G0 Y200
G0 Y198
G0 Z1
G0 Z0
G0 Y199
G0 Y197
G0 Z1
G0 Z0
G0 Y198
G0 Y196
G0 Z1
G0 Z0
G0 Y197
G0 Y195
G0 Z1
G0 Z0
G0 Y196
G0 Y194
G0 Z1
G0 Z0
G0 Y195
G0 Y193
G0 Z1
G0 Z0
G0 Y194
G0 Y192
G0 Z1
G0 Z0
G0 Y193
G0 Y191
G0 Z1
G0 Z0
G0 Y192
G0 Y190
G0 Z1
G0 Z0
G0 Y191
G0 Y189
G0 Z1
G0 Z0
G0 Y190
G0 Y188
G0 Z1
G0 Z0
G0 Y189
G0 Y187
G0 Z1
G0 Z0
G0 Y188
G0 Y186
G0 Z1
G0 Z0
G0 Y187
G0 Y185
G0 Z1
G0 Z0
G0 Y186
G0 Y184
G0 Z1
G0 Z0
G0 Y185
G0 Y183
G0 Z1
G0 Z0
G0 Y184
G0 Y182
G0 Z1
G0 Z0
G0 Y183
G0 Y181
G0 Z1
G0 Z0
G0 Y182
G0 Y180
G0 Z1
G0 Z0
G0 Y181
G0 Y179
G0 Z1
G0 Z0
G0 Y180
G0 Y178
G0 Z1
G0 Z0
G0 Y179
G0 Y177
G0 Z1
G0 Z0
G0 Y178
G0 Y176
G0 Z1
G0 Z0
G0 Y177
G0 Y175
G0 Z1
G0 Z0
G0 Y176
G0 Y174
G0 Z1
G0 Z0
G0 Y175
G0 Y173
G0 Z1
G0 Z0
G0 Y174

; Move to front of bed
G0 Y0
; Move to back of bed
G0 Y212
